EESchema Schematic File Version 4
EELAYER 30 0
EELAYER END
$Descr A4 11693 8268
encoding utf-8
Sheet 3 3
Title ""
Date ""
Rev ""
Comp ""
Comment1 ""
Comment2 ""
Comment3 ""
Comment4 ""
$EndDescr
$Comp
L fab2020:ATtiny3216 U6
U 1 1 5F3F6707
P 5100 2375
F 0 "U6" H 5100 3342 50  0000 C CNN
F 1 "ATtiny3216" H 5100 3251 50  0000 C CNN
F 2 "fab2020:fab-SOIC-20_7.5x12.8mm_P1.27mm" H 5100 2375 50  0001 C CIN
F 3 "" H 5100 2375 50  0001 C CNN
	1    5100 2375
	1    0    0    -1  
$EndComp
Text GLabel 1275 3675 0    50   Input ~ 0
5V
Text GLabel 1275 3775 0    50   Input ~ 0
GND
Text GLabel 2250 3675 2    50   Input ~ 0
SCL-Master
Text GLabel 2250 3775 2    50   Input ~ 0
SDA-Master
$Comp
L fab2020:CAP-US1206 C6
U 1 1 5F3F810E
P 5050 1050
F 0 "C6" H 5100 1304 45  0000 C CNN
F 1 "10Pf" H 5100 1220 45  0000 C CNN
F 2 "fab2020:fab-C1206" H 5080 1200 20  0001 C CNN
F 3 "" H 5050 1050 50  0001 C CNN
	1    5050 1050
	1    0    0    -1  
$EndComp
$Comp
L BarduinoStepperBoard-rescue:RES-US1206FAB-fab R12
U 1 1 5F3F8681
P 1300 1100
F 0 "R12" V 1342 1032 45  0000 R CNN
F 1 "499" V 1258 1032 45  0000 R CNN
F 2 "fab2020:fab-R1206" H 1330 1250 20  0001 C CNN
F 3 "" H 1300 1100 50  0001 C CNN
	1    1300 1100
	0    -1   -1   0   
$EndComp
$Comp
L BarduinoStepperBoard-rescue:RES-US1206FAB-fab R11
U 1 1 5F3F9AB8
P 1225 1600
F 0 "R11" V 1183 1668 45  0000 L CNN
F 1 "449" V 1267 1668 45  0000 L CNN
F 2 "fab2020:fab-R1206" H 1255 1750 20  0001 C CNN
F 3 "" H 1225 1600 50  0001 C CNN
	1    1225 1600
	0    1    1    0   
$EndComp
$Comp
L fab2020:LED M11
U 1 1 5F3F9FA6
P 1575 1200
F 0 "M11" H 1653 1292 45  0000 L CNN
F 1 "LED" H 1653 1208 45  0000 L CNN
F 2 "fab2020:fab-LED1206" H 1605 1350 20  0001 C CNN
F 3 "" H 1575 1200 50  0001 C CNN
	1    1575 1200
	1    0    0    -1  
$EndComp
$Comp
L fab2020:LED M12
U 1 1 5F3FA5C3
P 1575 1700
F 0 "M12" H 1653 1792 45  0000 L CNN
F 1 "LED" H 1653 1708 45  0000 L CNN
F 2 "fab2020:fab-LED1206" H 1605 1850 20  0001 C CNN
F 3 "" H 1575 1700 50  0001 C CNN
	1    1575 1700
	1    0    0    -1  
$EndComp
$Comp
L fab2020:UPDI-SMD-HEADER M8
U 1 1 5F3FA928
P 1400 2825
F 0 "M8" H 1400 2825 45  0001 C CNN
F 1 "UPDI-SMD-HEADER" H 1400 2825 45  0001 C CNN
F 2 "fab2020:fab-1X02SMD" H 1430 2975 20  0001 C CNN
F 3 "" H 1400 2825 50  0001 C CNN
	1    1400 2825
	1    0    0    -1  
$EndComp
$Comp
L fab2020:PINHD-2X2-SMD M13
U 1 1 5F3FB85E
P 1700 3675
F 0 "M13" H 1650 3421 45  0000 C CNN
F 1 "PINHD-2X2-SMD" H 1650 3505 45  0000 C CNN
F 2 "fab2020:fab-2X02SMD" H 1730 3825 20  0001 C CNN
F 3 "" H 1700 3675 50  0001 C CNN
	1    1700 3675
	-1   0    0    1   
$EndComp
Wire Wire Line
	1600 3675 1275 3675
Wire Wire Line
	1600 3775 1275 3775
Wire Wire Line
	1900 3775 2250 3775
Wire Wire Line
	2250 3675 1900 3675
Text GLabel 1250 2425 0    50   Input ~ 0
GND
Wire Wire Line
	1250 2425 1400 2425
Text GLabel 1250 2325 0    50   Input ~ 0
UPDI
Wire Wire Line
	1250 2325 1400 2325
Text GLabel 5975 2300 2    50   Input ~ 0
UPDI
Wire Wire Line
	5700 2300 5975 2300
Text GLabel 5975 3050 2    50   Input ~ 0
SCL-Master
Text GLabel 4225 3050 0    50   Input ~ 0
SDA-Master
Wire Wire Line
	4225 3050 4500 3050
Wire Wire Line
	5700 3050 5975 3050
Text GLabel 4225 1050 0    50   Input ~ 0
5V
Text GLabel 5975 1050 2    50   Input ~ 0
GND
Wire Wire Line
	5975 1050 5975 1700
Wire Wire Line
	5975 1700 5700 1700
Wire Wire Line
	4500 1700 4225 1700
Wire Wire Line
	4225 1700 4225 1050
Wire Wire Line
	4225 1050 4950 1050
Wire Wire Line
	5250 1050 5975 1050
Text GLabel 4225 2900 0    50   Input ~ 0
TX
Text GLabel 4225 2750 0    50   Input ~ 0
RX
Wire Wire Line
	4225 2750 4500 2750
Wire Wire Line
	4225 2900 4500 2900
Text GLabel 1575 900  2    50   Input ~ 0
5V
Wire Wire Line
	1575 900  1575 1000
Wire Wire Line
	1575 1300 1300 1300
Text GLabel 1150 900  0    50   Input ~ 0
GND
Wire Wire Line
	1150 900  1225 900 
Text GLabel 5975 1850 2    50   Input ~ 0
Check
Wire Wire Line
	5700 1850 5975 1850
Text GLabel 1575 1400 2    50   Input ~ 0
Check
Wire Wire Line
	1575 1400 1575 1500
Wire Wire Line
	1575 1800 1225 1800
Wire Wire Line
	1225 1400 1225 900 
Connection ~ 1225 900 
Wire Wire Line
	1225 900  1300 900 
Text GLabel 4225 1850 0    50   Input ~ 0
Pin1
Text GLabel 4225 2000 0    50   Input ~ 0
Pin2
Text GLabel 4225 2150 0    50   Input ~ 0
Pin3
Text GLabel 4225 2300 0    50   Input ~ 0
Pin4
Text GLabel 4225 2450 0    50   Input ~ 0
Pin5
Text GLabel 4225 2600 0    50   Input ~ 0
Pin6
Text GLabel 5975 2150 2    50   Input ~ 0
Pin7
Text GLabel 5975 2000 2    50   Input ~ 0
Pin8
Wire Wire Line
	4225 1850 4500 1850
Wire Wire Line
	4225 2000 4500 2000
Wire Wire Line
	4500 2150 4225 2150
Wire Wire Line
	4500 2300 4225 2300
Wire Wire Line
	4500 2450 4225 2450
Wire Wire Line
	4225 2600 4500 2600
Wire Wire Line
	5975 2000 5700 2000
Wire Wire Line
	5975 2150 5700 2150
$Comp
L fab2020:PINHD-1x08-HEADER M14
U 1 1 5F44A314
P 8375 3500
F 0 "M14" H 8375 3500 45  0001 C CNN
F 1 "PINHD-1x08-HEADER" H 8375 3500 45  0001 C CNN
F 2 "fab2020:fab-1X08" H 8405 3650 20  0001 C CNN
F 3 "" H 8375 3500 50  0001 C CNN
	1    8375 3500
	1    0    0    -1  
$EndComp
Text GLabel 7925 3000 0    50   Input ~ 0
Pin1
Text GLabel 7925 3100 0    50   Input ~ 0
Pin2
Text GLabel 7925 3200 0    50   Input ~ 0
Pin3
Text GLabel 7925 3300 0    50   Input ~ 0
Pin4
Text GLabel 7925 3400 0    50   Input ~ 0
Pin5
Text GLabel 7925 3500 0    50   Input ~ 0
Pin6
Text GLabel 7925 3600 0    50   Input ~ 0
Pin7
Text GLabel 7925 3700 0    50   Input ~ 0
Pin8
Wire Wire Line
	8375 3000 7925 3000
Wire Wire Line
	8375 3100 7925 3100
Wire Wire Line
	8375 3200 7925 3200
Wire Wire Line
	8375 3300 7925 3300
Wire Wire Line
	8375 3400 7925 3400
Wire Wire Line
	8375 3500 7925 3500
Wire Wire Line
	8375 3600 7925 3600
Wire Wire Line
	8375 3700 7925 3700
$Comp
L fab2020:PINHD-1x02-SMD-HEADER M9
U 1 1 5F45BC7D
P 1500 5450
F 0 "M9" H 1500 5450 45  0001 C CNN
F 1 "PINHD-1x02-SMD-HEADER" H 1500 5450 45  0001 C CNN
F 2 "fab2020:fab-1X02SMD" H 1530 5600 20  0001 C CNN
F 3 "" H 1500 5450 50  0001 C CNN
	1    1500 5450
	1    0    0    -1  
$EndComp
Text GLabel 1225 5050 0    50   Input ~ 0
TX
Text GLabel 1225 4950 0    50   Input ~ 0
RX
Wire Wire Line
	1225 4950 1500 4950
Wire Wire Line
	1225 5050 1500 5050
$Comp
L fab2020:ATtiny3216 U7
U 1 1 5F466B27
P 5100 5200
F 0 "U7" H 5100 6167 50  0000 C CNN
F 1 "ATtiny3216" H 5100 6076 50  0000 C CNN
F 2 "fab2020:fab-SOIC-20_7.5x12.8mm_P1.27mm" H 5100 5200 50  0001 C CIN
F 3 "" H 5100 5200 50  0001 C CNN
	1    5100 5200
	1    0    0    -1  
$EndComp
$Comp
L fab2020:CAP-US1206 C7
U 1 1 5F466B2D
P 5050 3875
F 0 "C7" H 5100 4129 45  0000 C CNN
F 1 "10Pf" H 5100 4045 45  0000 C CNN
F 2 "fab2020:fab-C1206" H 5080 4025 20  0001 C CNN
F 3 "" H 5050 3875 50  0001 C CNN
	1    5050 3875
	1    0    0    -1  
$EndComp
Text GLabel 5975 5125 2    50   Input ~ 0
UPDI1
Wire Wire Line
	5700 5125 5975 5125
Text GLabel 5975 5875 2    50   Input ~ 0
SCL-Master
Text GLabel 4225 5875 0    50   Input ~ 0
SDA-Master
Wire Wire Line
	4225 5875 4500 5875
Wire Wire Line
	5700 5875 5975 5875
Text GLabel 4225 3875 0    50   Input ~ 0
5V
Text GLabel 5975 3875 2    50   Input ~ 0
GND
Wire Wire Line
	5975 3875 5975 4525
Wire Wire Line
	5975 4525 5700 4525
Wire Wire Line
	4500 4525 4225 4525
Wire Wire Line
	4225 4525 4225 3875
Wire Wire Line
	4225 3875 4950 3875
Wire Wire Line
	5250 3875 5975 3875
Text GLabel 4225 5725 0    50   Input ~ 0
TX1
Text GLabel 4225 5575 0    50   Input ~ 0
RX1
Wire Wire Line
	4225 5575 4500 5575
Wire Wire Line
	4225 5725 4500 5725
Text GLabel 5975 4675 2    50   Input ~ 0
Check1
Wire Wire Line
	5700 4675 5975 4675
Text GLabel 4225 4675 0    50   Input ~ 0
Pin9
Text GLabel 4225 4825 0    50   Input ~ 0
Pin10
Text GLabel 4225 4975 0    50   Input ~ 0
Pin11
Text GLabel 4225 5125 0    50   Input ~ 0
Pin12
Text GLabel 4225 5275 0    50   Input ~ 0
Pin13
Text GLabel 4225 5425 0    50   Input ~ 0
Pin14
Text GLabel 5975 4975 2    50   Input ~ 0
Pin15
Text GLabel 5975 4825 2    50   Input ~ 0
Pin16
Wire Wire Line
	4225 4675 4500 4675
Wire Wire Line
	4225 4825 4500 4825
Wire Wire Line
	4500 4975 4225 4975
Wire Wire Line
	4500 5125 4225 5125
Wire Wire Line
	4500 5275 4225 5275
Wire Wire Line
	4225 5425 4500 5425
Wire Wire Line
	5975 4825 5700 4825
Wire Wire Line
	5975 4975 5700 4975
$Comp
L fab2020:PINHD-1x02-SMD-HEADER M10
U 1 1 5F47AB38
P 1500 6000
F 0 "M10" H 1500 6000 45  0001 C CNN
F 1 "PINHD-1x02-SMD-HEADER" H 1500 6000 45  0001 C CNN
F 2 "fab2020:fab-1X02SMD" H 1530 6150 20  0001 C CNN
F 3 "" H 1500 6000 50  0001 C CNN
	1    1500 6000
	1    0    0    -1  
$EndComp
Text GLabel 1225 5600 0    50   Input ~ 0
TX1
Text GLabel 1225 5500 0    50   Input ~ 0
RX1
Wire Wire Line
	1225 5500 1500 5500
Wire Wire Line
	1225 5600 1500 5600
$Comp
L fab2020:UPDI-SMD-HEADER M7
U 1 1 5F483982
P 1375 3350
F 0 "M7" H 1375 3350 45  0001 C CNN
F 1 "UPDI-SMD-HEADER" H 1375 3350 45  0001 C CNN
F 2 "fab2020:fab-1X02SMD" H 1405 3500 20  0001 C CNN
F 3 "" H 1375 3350 50  0001 C CNN
	1    1375 3350
	1    0    0    -1  
$EndComp
Text GLabel 1225 2950 0    50   Input ~ 0
GND
Wire Wire Line
	1225 2950 1375 2950
Text GLabel 1225 2850 0    50   Input ~ 0
UPDI1
Wire Wire Line
	1225 2850 1375 2850
Wire Wire Line
	9125 1700 9050 1700
Connection ~ 9125 1700
Wire Wire Line
	9125 2750 9125 1700
Wire Wire Line
	8575 2750 9125 2750
Wire Wire Line
	9050 1700 8975 1700
Connection ~ 9050 1700
Wire Wire Line
	9050 2600 9050 1700
Wire Wire Line
	8575 2600 9050 2600
Wire Wire Line
	8975 1700 8900 1700
Connection ~ 8975 1700
Wire Wire Line
	8975 2450 8975 1700
Wire Wire Line
	8575 2450 8975 2450
Wire Wire Line
	8900 1700 8825 1700
Connection ~ 8900 1700
Wire Wire Line
	8900 2300 8900 1700
Wire Wire Line
	8575 2300 8900 2300
Wire Wire Line
	8825 1700 8750 1700
Connection ~ 8825 1700
Wire Wire Line
	8825 2150 8825 1700
Wire Wire Line
	8575 2150 8825 2150
Wire Wire Line
	8750 1700 8675 1700
Connection ~ 8750 1700
Wire Wire Line
	8750 2000 8750 1700
Wire Wire Line
	8575 2000 8750 2000
Wire Wire Line
	8675 1700 8575 1700
Connection ~ 8675 1700
Wire Wire Line
	8675 1850 8675 1700
Wire Wire Line
	8575 1850 8675 1850
Text GLabel 9200 1250 1    50   Input ~ 0
GND
Wire Wire Line
	8175 2750 7925 2750
Wire Wire Line
	8175 2600 7925 2600
Wire Wire Line
	7925 2450 8175 2450
Wire Wire Line
	8175 2300 7925 2300
Wire Wire Line
	8175 2150 7925 2150
Wire Wire Line
	8175 2000 7925 2000
Wire Wire Line
	8175 1850 7925 1850
Wire Wire Line
	7925 1700 8175 1700
$Comp
L BarduinoStepperBoard-rescue:RES-US1206FAB-fab R20
U 1 1 5F427619
P 8375 2750
F 0 "R20" H 8375 2556 45  0000 C CNN
F 1 "449" H 8375 2640 45  0000 C CNN
F 2 "fab2020:fab-R1206" H 8405 2900 20  0001 C CNN
F 3 "" H 8375 2750 50  0001 C CNN
	1    8375 2750
	-1   0    0    1   
$EndComp
$Comp
L BarduinoStepperBoard-rescue:RES-US1206FAB-fab R19
U 1 1 5F426E20
P 8375 2600
F 0 "R19" H 8375 2406 45  0000 C CNN
F 1 "449" H 8375 2490 45  0000 C CNN
F 2 "fab2020:fab-R1206" H 8405 2750 20  0001 C CNN
F 3 "" H 8375 2600 50  0001 C CNN
	1    8375 2600
	-1   0    0    1   
$EndComp
$Comp
L BarduinoStepperBoard-rescue:RES-US1206FAB-fab R13
U 1 1 5F412203
P 8375 1700
F 0 "R13" H 8375 1506 45  0000 C CNN
F 1 "449" H 8375 1590 45  0000 C CNN
F 2 "fab2020:fab-R1206" H 8405 1850 20  0001 C CNN
F 3 "" H 8375 1700 50  0001 C CNN
	1    8375 1700
	-1   0    0    1   
$EndComp
$Comp
L BarduinoStepperBoard-rescue:RES-US1206FAB-fab R14
U 1 1 5F414486
P 8375 1850
F 0 "R14" H 8375 1656 45  0000 C CNN
F 1 "449" H 8375 1740 45  0000 C CNN
F 2 "fab2020:fab-R1206" H 8405 2000 20  0001 C CNN
F 3 "" H 8375 1850 50  0001 C CNN
	1    8375 1850
	-1   0    0    1   
$EndComp
$Comp
L BarduinoStepperBoard-rescue:RES-US1206FAB-fab R15
U 1 1 5F414B28
P 8375 2000
F 0 "R15" H 8375 1806 45  0000 C CNN
F 1 "449" H 8375 1890 45  0000 C CNN
F 2 "fab2020:fab-R1206" H 8405 2150 20  0001 C CNN
F 3 "" H 8375 2000 50  0001 C CNN
	1    8375 2000
	-1   0    0    1   
$EndComp
$Comp
L BarduinoStepperBoard-rescue:RES-US1206FAB-fab R16
U 1 1 5F415010
P 8375 2150
F 0 "R16" H 8375 1956 45  0000 C CNN
F 1 "449" H 8375 2040 45  0000 C CNN
F 2 "fab2020:fab-R1206" H 8405 2300 20  0001 C CNN
F 3 "" H 8375 2150 50  0001 C CNN
	1    8375 2150
	-1   0    0    1   
$EndComp
$Comp
L BarduinoStepperBoard-rescue:RES-US1206FAB-fab R17
U 1 1 5F4153AD
P 8375 2300
F 0 "R17" H 8375 2106 45  0000 C CNN
F 1 "449" H 8375 2190 45  0000 C CNN
F 2 "fab2020:fab-R1206" H 8405 2450 20  0001 C CNN
F 3 "" H 8375 2300 50  0001 C CNN
	1    8375 2300
	-1   0    0    1   
$EndComp
$Comp
L BarduinoStepperBoard-rescue:RES-US1206FAB-fab R18
U 1 1 5F4158AE
P 8375 2450
F 0 "R18" H 8375 2256 45  0000 C CNN
F 1 "449" H 8375 2340 45  0000 C CNN
F 2 "fab2020:fab-R1206" H 8405 2600 20  0001 C CNN
F 3 "" H 8375 2450 50  0001 C CNN
	1    8375 2450
	-1   0    0    1   
$EndComp
Text GLabel 7925 2750 0    50   Input ~ 0
Pin8
Text GLabel 7925 2600 0    50   Input ~ 0
Pin7
Text GLabel 7925 2450 0    50   Input ~ 0
Pin6
Text GLabel 7925 2300 0    50   Input ~ 0
Pin5
Text GLabel 7925 2150 0    50   Input ~ 0
Pin4
Text GLabel 7925 2000 0    50   Input ~ 0
Pin3
Text GLabel 7925 1850 0    50   Input ~ 0
Pin2
Text GLabel 7925 1700 0    50   Input ~ 0
Pin1
Text GLabel 10475 1700 2    50   Input ~ 0
Pin9
Text GLabel 10475 1850 2    50   Input ~ 0
Pin10
Text GLabel 10475 2000 2    50   Input ~ 0
Pin11
Text GLabel 10475 2150 2    50   Input ~ 0
Pin12
Text GLabel 10475 2300 2    50   Input ~ 0
Pin13
Text GLabel 10475 2450 2    50   Input ~ 0
Pin14
Text GLabel 10475 2600 2    50   Input ~ 0
Pin15
Text GLabel 10475 2750 2    50   Input ~ 0
Pin16
$Comp
L BarduinoStepperBoard-rescue:RES-US1206FAB-fab R26
U 1 1 5F4B203F
P 10025 2450
F 0 "R26" H 10025 2256 45  0000 C CNN
F 1 "449" H 10025 2340 45  0000 C CNN
F 2 "fab2020:fab-R1206" H 10055 2600 20  0001 C CNN
F 3 "" H 10025 2450 50  0001 C CNN
	1    10025 2450
	1    0    0    1   
$EndComp
$Comp
L BarduinoStepperBoard-rescue:RES-US1206FAB-fab R25
U 1 1 5F4B2045
P 10025 2300
F 0 "R25" H 10025 2106 45  0000 C CNN
F 1 "449" H 10025 2190 45  0000 C CNN
F 2 "fab2020:fab-R1206" H 10055 2450 20  0001 C CNN
F 3 "" H 10025 2300 50  0001 C CNN
	1    10025 2300
	1    0    0    1   
$EndComp
$Comp
L BarduinoStepperBoard-rescue:RES-US1206FAB-fab R24
U 1 1 5F4B204B
P 10025 2150
F 0 "R24" H 10025 1956 45  0000 C CNN
F 1 "449" H 10025 2040 45  0000 C CNN
F 2 "fab2020:fab-R1206" H 10055 2300 20  0001 C CNN
F 3 "" H 10025 2150 50  0001 C CNN
	1    10025 2150
	1    0    0    1   
$EndComp
$Comp
L BarduinoStepperBoard-rescue:RES-US1206FAB-fab R23
U 1 1 5F4B2051
P 10025 2000
F 0 "R23" H 10025 1806 45  0000 C CNN
F 1 "449" H 10025 1890 45  0000 C CNN
F 2 "fab2020:fab-R1206" H 10055 2150 20  0001 C CNN
F 3 "" H 10025 2000 50  0001 C CNN
	1    10025 2000
	1    0    0    1   
$EndComp
$Comp
L BarduinoStepperBoard-rescue:RES-US1206FAB-fab R21
U 1 1 5F4B205D
P 10025 1700
F 0 "R21" H 10025 1506 45  0000 C CNN
F 1 "449" H 10025 1590 45  0000 C CNN
F 2 "fab2020:fab-R1206" H 10055 1850 20  0001 C CNN
F 3 "" H 10025 1700 50  0001 C CNN
	1    10025 1700
	1    0    0    1   
$EndComp
$Comp
L BarduinoStepperBoard-rescue:RES-US1206FAB-fab R27
U 1 1 5F4B2063
P 10025 2600
F 0 "R27" H 10025 2406 45  0000 C CNN
F 1 "449" H 10025 2490 45  0000 C CNN
F 2 "fab2020:fab-R1206" H 10055 2750 20  0001 C CNN
F 3 "" H 10025 2600 50  0001 C CNN
	1    10025 2600
	1    0    0    1   
$EndComp
$Comp
L BarduinoStepperBoard-rescue:RES-US1206FAB-fab R28
U 1 1 5F4B2069
P 10025 2750
F 0 "R28" H 10025 2556 45  0000 C CNN
F 1 "449" H 10025 2640 45  0000 C CNN
F 2 "fab2020:fab-R1206" H 10055 2900 20  0001 C CNN
F 3 "" H 10025 2750 50  0001 C CNN
	1    10025 2750
	1    0    0    1   
$EndComp
Wire Wire Line
	10475 1700 10225 1700
Wire Wire Line
	10225 2000 10475 2000
Wire Wire Line
	10225 2150 10475 2150
Wire Wire Line
	10225 2300 10475 2300
Wire Wire Line
	10475 2450 10225 2450
Wire Wire Line
	10225 2600 10475 2600
Wire Wire Line
	10225 2750 10475 2750
Wire Wire Line
	9825 1850 9725 1850
Wire Wire Line
	9725 1850 9725 1700
Connection ~ 9725 1700
Wire Wire Line
	9725 1700 9825 1700
Wire Wire Line
	9825 2000 9650 2000
Wire Wire Line
	9650 2000 9650 1700
Connection ~ 9650 1700
Wire Wire Line
	9650 1700 9725 1700
Wire Wire Line
	9825 2150 9575 2150
Wire Wire Line
	9575 2150 9575 1700
Connection ~ 9575 1700
Wire Wire Line
	9575 1700 9650 1700
Wire Wire Line
	9825 2300 9500 2300
Wire Wire Line
	9500 2300 9500 1700
Connection ~ 9500 1700
Wire Wire Line
	9500 1700 9575 1700
Wire Wire Line
	9825 2450 9425 2450
Wire Wire Line
	9425 2450 9425 1700
Connection ~ 9425 1700
Wire Wire Line
	9425 1700 9500 1700
Wire Wire Line
	9825 2600 9350 2600
Wire Wire Line
	9350 2600 9350 1700
Connection ~ 9350 1700
Wire Wire Line
	9350 1700 9425 1700
Wire Wire Line
	9825 2750 9275 2750
Wire Wire Line
	9275 2750 9275 1700
Connection ~ 9275 1700
Wire Wire Line
	9275 1700 9350 1700
Wire Wire Line
	9125 1700 9200 1700
Wire Wire Line
	9200 1700 9200 1250
Connection ~ 9200 1700
Wire Wire Line
	9200 1700 9275 1700
$Comp
L fab2020:PINHD-1x08-HEADER M15
U 1 1 5F4DE2AC
P 10025 3200
F 0 "M15" H 10025 3200 45  0001 C CNN
F 1 "PINHD-1x08-HEADER" H 10025 3200 45  0001 C CNN
F 2 "fab2020:fab-1X08" H 10055 3350 20  0001 C CNN
F 3 "" H 10025 3200 50  0001 C CNN
	1    10025 3200
	-1   0    0    1   
$EndComp
Wire Wire Line
	10025 3700 10475 3700
Wire Wire Line
	10025 3600 10475 3600
Wire Wire Line
	10025 3500 10475 3500
Wire Wire Line
	10025 3400 10475 3400
Wire Wire Line
	10025 3300 10475 3300
Wire Wire Line
	10025 3200 10475 3200
Wire Wire Line
	10025 3100 10475 3100
Wire Wire Line
	10025 3000 10475 3000
Text GLabel 10475 3000 2    50   Input ~ 0
Pin9
Text GLabel 10475 3100 2    50   Input ~ 0
Pin10
Text GLabel 10475 3200 2    50   Input ~ 0
Pin11
Text GLabel 10475 3300 2    50   Input ~ 0
Pin12
Text GLabel 10475 3400 2    50   Input ~ 0
Pin13
Text GLabel 10475 3500 2    50   Input ~ 0
Pin14
Text GLabel 10475 3600 2    50   Input ~ 0
Pin15
Text GLabel 10475 3700 2    50   Input ~ 0
Pin16
Wire Wire Line
	10225 1850 10475 1850
$Comp
L BarduinoStepperBoard-rescue:RES-US1206FAB-fab R22
U 1 1 5F4B2057
P 10025 1850
F 0 "R22" H 10025 1656 45  0000 C CNN
F 1 "449" H 10025 1740 45  0000 C CNN
F 2 "fab2020:fab-R1206" H 10055 2000 20  0001 C CNN
F 3 "" H 10025 1850 50  0001 C CNN
	1    10025 1850
	1    0    0    1   
$EndComp
$EndSCHEMATC
