EESchema Schematic File Version 4
EELAYER 30 0
EELAYER END
$Descr A4 11693 8268
encoding utf-8
Sheet 2 3
Title ""
Date ""
Rev ""
Comp ""
Comment1 ""
Comment2 ""
Comment3 ""
Comment4 ""
$EndDescr
$Comp
L fab2020:ESP32-WROOM U4
U 1 1 5F1DAF94
P 9250 2300
F 0 "U4" H 9225 3687 60  0000 C CNN
F 1 "ESP32-WROOM" H 9225 3581 60  0000 C CNN
F 2 "fab2020:fab-ESP32-WROOM" H 9600 3650 60  0001 C CNN
F 3 "" H 8800 2750 60  0001 C CNN
	1    9250 2300
	1    0    0    -1  
$EndComp
$Comp
L fab2020:MICRO-USB_ORIG M1
U 1 1 5F1DD14C
P 1350 1250
F 0 "M1" V 1046 1307 45  0000 C CNN
F 1 "MICRO-USB_ORIG" V 1130 1307 45  0000 C CNN
F 2 "fab2020:fab-DX4R005HJ5" H 1380 1400 20  0001 C CNN
F 3 "" H 1350 1250 50  0001 C CNN
	1    1350 1250
	0    1    1    0   
$EndComp
$Comp
L fab2020:VOLTAGE-REGULATOR-SOT223 U1
U 1 1 5F1DE17D
P 1550 2125
F 0 "U1" H 1550 2367 50  0000 C CNN
F 1 "VOLTAGE-REGULATOR-SOT223" H 1550 2276 50  0000 C CNN
F 2 "fab2020:fab-SOT223" H 1550 2325 50  0001 C CNN
F 3 "" H 1650 1875 50  0001 C CNN
	1    1550 2125
	1    0    0    -1  
$EndComp
$Comp
L BarduinoStepperBoard-rescue:RES-US1206FAB-fab R1
U 1 1 5F1DE9E7
P 1450 3150
F 0 "R1" H 1450 3344 45  0000 C CNN
F 1 "49" H 1450 3260 45  0000 C CNN
F 2 "fab2020:fab-R1206" H 1480 3300 20  0001 C CNN
F 3 "" H 1450 3150 50  0001 C CNN
	1    1450 3150
	1    0    0    -1  
$EndComp
$Comp
L BarduinoStepperBoard-rescue:RES-US1206FAB-fab R2
U 1 1 5F1DF0A5
P 1450 3425
F 0 "R2" H 1450 3619 45  0000 C CNN
F 1 "49" H 1450 3535 45  0000 C CNN
F 2 "fab2020:fab-R1206" H 1480 3575 20  0001 C CNN
F 3 "" H 1450 3425 50  0001 C CNN
	1    1450 3425
	1    0    0    -1  
$EndComp
$Comp
L fab2020:FT230XS U2
U 1 1 5F1E1433
P 5275 1750
F 0 "U2" H 5275 2592 50  0000 C CNN
F 1 "FT230XS" H 5275 2501 50  0000 C CNN
F 2 "fab2020:FabFtx" H 5275 1750 50  0001 C CIN
F 3 "http://www.ftdichip.com/Products/ICs/FT230X.html" H 5275 1750 50  0001 C CNN
	1    5275 1750
	1    0    0    -1  
$EndComp
$Comp
L fab2020:SLIDE-SWITCH S1
U 1 1 5F1E349F
P 1325 7275
F 0 "S1" H 1325 7554 45  0000 C CNN
F 1 "SLIDE-SWITCH" H 1325 7470 45  0000 C CNN
F 2 "fab2020:fab-AYZ0102AGRLC" H 1355 7425 20  0001 C CNN
F 3 "" H 1325 7275 50  0001 C CNN
	1    1325 7275
	1    0    0    -1  
$EndComp
$Comp
L fab2020:CAP-US1206 C1
U 1 1 5F1E6856
P 1225 5350
F 0 "C1" H 1275 5604 45  0000 C CNN
F 1 "CAP-US1206" H 1275 5520 45  0000 C CNN
F 2 "fab2020:fab-C1206" H 1255 5500 20  0001 C CNN
F 3 "" H 1225 5350 50  0001 C CNN
	1    1225 5350
	1    0    0    -1  
$EndComp
$Comp
L fab2020:LED M2
U 1 1 5F1E77F0
P 1825 4625
F 0 "M2" H 1902 4717 45  0000 L CNN
F 1 "LED" H 1902 4633 45  0000 L CNN
F 2 "fab2020:fab-LED1206" H 1855 4775 20  0001 C CNN
F 3 "" H 1825 4625 50  0001 C CNN
	1    1825 4625
	1    0    0    -1  
$EndComp
Text GLabel 1775 1150 2    50   Input ~ 0
GND
Wire Wire Line
	1775 1150 1550 1150
Text GLabel 1775 1250 2    50   Input ~ 0
5V
Wire Wire Line
	1775 1250 1550 1250
Wire Wire Line
	1775 1350 1550 1350
Wire Wire Line
	1775 1450 1550 1450
$Comp
L fab2020:ZENER_DIODESOD123 D1
U 1 1 5F1EAC31
P 2225 3150
F 0 "D1" H 2225 3354 45  0000 C CNN
F 1 "ZENER_DIODESOD123" H 2225 3270 45  0000 C CNN
F 2 "fab2020:fab-SOD123" H 2255 3300 20  0001 C CNN
F 3 "" H 2225 3150 50  0001 C CNN
	1    2225 3150
	1    0    0    -1  
$EndComp
$Comp
L fab2020:ZENER_DIODESOD123 D2
U 1 1 5F1EC919
P 2225 3425
F 0 "D2" H 2225 3629 45  0000 C CNN
F 1 "ZENER_DIODESOD123" H 2225 3545 45  0000 C CNN
F 2 "fab2020:fab-SOD123" H 2255 3575 20  0001 C CNN
F 3 "" H 2225 3425 50  0001 C CNN
	1    2225 3425
	1    0    0    -1  
$EndComp
Text GLabel 2025 2125 2    50   Input ~ 0
3V3
Wire Wire Line
	2025 2125 1850 2125
Text GLabel 1000 2125 0    50   Input ~ 0
5V
Wire Wire Line
	1000 2125 1250 2125
Text GLabel 2025 2500 2    50   Input ~ 0
GND
Wire Wire Line
	2025 2500 1550 2500
Wire Wire Line
	1550 2500 1550 2425
$Comp
L fab2020:LED M3
U 1 1 5F1EFFEC
P 2575 4625
F 0 "M3" H 2652 4717 45  0000 L CNN
F 1 "LED" H 2652 4633 45  0000 L CNN
F 2 "fab2020:fab-LED1206" H 2605 4775 20  0001 C CNN
F 3 "" H 2575 4625 50  0001 C CNN
	1    2575 4625
	1    0    0    -1  
$EndComp
$Comp
L fab2020:CAP-US1206 C2
U 1 1 5F1F0DA1
P 1225 5775
F 0 "C2" H 1275 6029 45  0000 C CNN
F 1 "CAP-US1206" H 1275 5945 45  0000 C CNN
F 2 "fab2020:fab-C1206" H 1255 5925 20  0001 C CNN
F 3 "" H 1225 5775 50  0001 C CNN
	1    1225 5775
	1    0    0    -1  
$EndComp
$Comp
L fab2020:CAP-US1206 C3
U 1 1 5F1F1193
P 1225 6225
F 0 "C3" H 1275 6479 45  0000 C CNN
F 1 "CAP-US1206" H 1275 6395 45  0000 C CNN
F 2 "fab2020:fab-C1206" H 1255 6375 20  0001 C CNN
F 3 "" H 1225 6225 50  0001 C CNN
	1    1225 6225
	1    0    0    -1  
$EndComp
Text GLabel 875  4725 0    50   Input ~ 0
GND
Wire Wire Line
	875  4725 1125 4725
Wire Wire Line
	1125 5350 1125 4725
Connection ~ 1125 4725
Wire Wire Line
	1125 4725 1825 4725
Wire Wire Line
	1125 5775 1125 5350
Connection ~ 1125 5350
Wire Wire Line
	1125 6225 1125 5775
Connection ~ 1125 5775
$Comp
L BarduinoStepperBoard-rescue:RES-US1206FAB-fab R3
U 1 1 5F20017C
P 1625 4200
F 0 "R3" H 1625 4394 45  0000 C CNN
F 1 "499" H 1625 4310 45  0000 C CNN
F 2 "fab2020:fab-R1206" H 1655 4350 20  0001 C CNN
F 3 "" H 1625 4200 50  0001 C CNN
	1    1625 4200
	1    0    0    -1  
$EndComp
$Comp
L BarduinoStepperBoard-rescue:RES-US1206FAB-fab R4
U 1 1 5F200FB6
P 2775 4200
F 0 "R4" H 2775 4394 45  0000 C CNN
F 1 "499" H 2775 4310 45  0000 C CNN
F 2 "fab2020:fab-R1206" H 2805 4350 20  0001 C CNN
F 3 "" H 2775 4200 50  0001 C CNN
	1    2775 4200
	1    0    0    -1  
$EndComp
Text GLabel 4400 1675 0    50   Input ~ 0
RX
Text GLabel 4400 1225 0    50   Input ~ 0
TX
Text GLabel 4400 2275 0    50   Input ~ 0
USB+
Text GLabel 6150 2275 2    50   Input ~ 0
USB-
Wire Wire Line
	4400 1675 4575 1675
Text GLabel 6150 1675 2    50   Input ~ 0
GND
Text GLabel 6150 1825 2    50   Input ~ 0
5V
Text GLabel 4400 1825 0    50   Input ~ 0
GND
Text GLabel 6150 2125 2    50   Input ~ 0
VIO
Text GLabel 4400 1525 0    50   Input ~ 0
VIO
Wire Wire Line
	4400 1525 4575 1525
Wire Wire Line
	4400 1825 4575 1825
Wire Wire Line
	4400 2275 4575 2275
Wire Wire Line
	6150 2275 5975 2275
Wire Wire Line
	6150 2125 5975 2125
Wire Wire Line
	6150 1825 5975 1825
Wire Wire Line
	6150 1675 5975 1675
Text GLabel 825  7275 0    50   Input ~ 0
PROG
Wire Wire Line
	825  7275 1125 7275
Text GLabel 1750 7175 2    50   Input ~ 0
GND
Wire Wire Line
	1750 7175 1525 7175
$Comp
L fab2020:6MM_SWITCH6MM_SWITCH S2
U 1 1 5F1E4424
P 3725 7175
F 0 "S2" V 3900 7125 45  0000 L CNN
F 1 "Rst" V 3475 7125 45  0000 L CNN
F 2 "fab2020:fab-6MM_SWITCH" H 3755 7325 20  0001 C CNN
F 3 "" H 3725 7175 50  0001 C CNN
	1    3725 7175
	0    1    1    0   
$EndComp
Text GLabel 2725 7175 0    50   Input ~ 0
EN
Text GLabel 2725 7575 0    50   Input ~ 0
3V3
Text GLabel 4400 7175 2    50   Input ~ 0
GND
Wire Wire Line
	4400 7175 4225 7175
Wire Wire Line
	3925 7275 4225 7275
Wire Wire Line
	4225 7275 4225 7175
Connection ~ 4225 7175
Wire Wire Line
	4225 7175 3925 7175
Wire Wire Line
	2850 7275 2850 7175
Wire Wire Line
	2725 7175 2850 7175
Connection ~ 2850 7175
$Comp
L BarduinoStepperBoard-rescue:RES-US1206FAB-fab R5
U 1 1 5F2114CD
P 3100 7575
F 0 "R5" H 3100 7769 45  0000 C CNN
F 1 "RES-US1206FAB-fab" H 3100 7685 45  0000 C CNN
F 2 "fab2020:fab-R1206" H 3130 7725 20  0001 C CNN
F 3 "" H 3100 7575 50  0001 C CNN
	1    3100 7575
	1    0    0    -1  
$EndComp
Wire Wire Line
	2850 7175 3525 7175
Wire Wire Line
	3525 7275 3300 7275
Wire Wire Line
	3300 7275 3300 7575
Wire Wire Line
	2900 7575 2725 7575
Wire Wire Line
	2850 7275 3300 7275
Connection ~ 3300 7275
Text GLabel 1675 5350 2    50   Input ~ 0
5V
Text GLabel 1675 5775 2    50   Input ~ 0
D-
Text GLabel 1675 6225 2    50   Input ~ 0
D+
Wire Wire Line
	1675 5350 1425 5350
Wire Wire Line
	1675 5775 1425 5775
Wire Wire Line
	1675 6225 1425 6225
Wire Wire Line
	1825 4425 1825 4200
Wire Wire Line
	2575 4425 2575 4200
Wire Wire Line
	4400 1225 4575 1225
Text GLabel 875  4200 0    50   Input ~ 0
3V3
Wire Wire Line
	875  4200 1425 4200
Wire Wire Line
	1650 3150 2125 3150
Wire Wire Line
	2125 3425 1650 3425
Text GLabel 1000 3150 0    50   Input ~ 0
USB+
Text GLabel 1000 3425 0    50   Input ~ 0
USB-
Wire Wire Line
	1000 3150 1250 3150
Wire Wire Line
	1000 3425 1250 3425
Text GLabel 1775 1450 2    50   Input ~ 0
D+
Text GLabel 1775 1350 2    50   Input ~ 0
D-
Text GLabel 2725 3150 2    50   Input ~ 0
D+
Text GLabel 2725 3425 2    50   Input ~ 0
D-
Wire Wire Line
	2725 3425 2325 3425
Wire Wire Line
	2725 3150 2325 3150
Text GLabel 7950 3350 0    50   Input ~ 0
GND
Text GLabel 7950 1700 0    50   Input ~ 0
3V3
Wire Wire Line
	8300 3000 7950 3000
Wire Wire Line
	7950 3000 7950 3350
Wire Wire Line
	8800 3350 7950 3350
Wire Wire Line
	8300 1700 7950 1700
Text GLabel 10450 1750 2    50   Input ~ 0
TX
Wire Wire Line
	10450 1750 10150 1750
Text GLabel 10450 1850 2    50   Input ~ 0
RX
Wire Wire Line
	10450 1850 10150 1850
Text GLabel 10450 2950 2    50   Input ~ 0
GND
Wire Wire Line
	10450 2950 10325 2950
$Comp
L fab2020:MAX1555EZK+T U5
U 1 1 5F239C5E
P 10075 6075
F 0 "U5" H 10075 6440 50  0000 C CNN
F 1 "MAX1555EZK+T" H 10075 6349 50  0000 C CNN
F 2 "fab2020:fab-SOT23-5" H 9875 6225 50  0001 C CNN
F 3 "" H 9875 6225 50  0001 C CNN
	1    10075 6075
	1    0    0    -1  
$EndComp
Text GLabel 8600 5975 0    50   Input ~ 0
5V
Text GLabel 8600 6275 0    50   Input ~ 0
GND
Text GLabel 10725 6175 2    50   Input ~ 0
CHG
Text GLabel 10725 5975 2    50   Input ~ 0
BAT
Wire Wire Line
	10725 5975 10625 5975
Wire Wire Line
	10725 6175 10625 6175
Wire Wire Line
	9625 6275 9625 6075
Connection ~ 8975 6275
Wire Wire Line
	8975 6275 9625 6275
Wire Wire Line
	8600 6275 8975 6275
Connection ~ 8975 5975
Wire Wire Line
	8975 5975 9625 5975
Wire Wire Line
	8600 5975 8975 5975
$Comp
L fab2020:CAP-US1206 C4
U 1 1 5F23F1F9
P 8975 6075
F 0 "C4" V 8983 6203 45  0000 L CNN
F 1 "1uf" V 9067 6203 45  0000 L CNN
F 2 "fab2020:fab-C1206" H 9005 6225 20  0001 C CNN
F 3 "" H 8975 6075 50  0001 C CNN
	1    8975 6075
	0    1    1    0   
$EndComp
$Comp
L fab2020:PINHD-1x04-SMD-HEADER M4
U 1 1 5F250F9F
P 8675 5500
F 0 "M4" H 8675 5500 45  0001 C CNN
F 1 "PINHD-1x04-SMD-HEADER" H 8675 5500 45  0001 C CNN
F 2 "fab2020:fab-1X04SMD" H 8705 5650 20  0001 C CNN
F 3 "" H 8675 5500 50  0001 C CNN
	1    8675 5500
	1    0    0    -1  
$EndComp
$Comp
L fab2020:PINHD-1x03-HEADER M6
U 1 1 5F253A2F
P 10575 5475
F 0 "M6" H 10575 5475 45  0001 C CNN
F 1 "PINHD-1x03-HEADER" H 10575 5475 45  0001 C CNN
F 2 "fab2020:fab-1X03" H 10605 5625 20  0001 C CNN
F 3 "" H 10575 5475 50  0001 C CNN
	1    10575 5475
	1    0    0    -1  
$EndComp
$Comp
L Transistor_FET:BSS138 Q1
U 1 1 5F254295
P 5200 5575
F 0 "Q1" V 5449 5575 50  0000 C CNN
F 1 "BSS138" V 5540 5575 50  0000 C CNN
F 2 "Package_TO_SOT_SMD:SOT-23" H 5400 5500 50  0001 L CIN
F 3 "https://www.fairchildsemi.com/datasheets/BS/BSS138.pdf" H 5200 5575 50  0001 L CNN
	1    5200 5575
	0    1    1    0   
$EndComp
$Comp
L Transistor_FET:BSS138 Q2
U 1 1 5F258036
P 5650 6075
F 0 "Q2" V 5899 6075 50  0000 C CNN
F 1 "BSS138" V 5990 6075 50  0000 C CNN
F 2 "Package_TO_SOT_SMD:SOT-23" H 5850 6000 50  0001 L CIN
F 3 "https://www.fairchildsemi.com/datasheets/BS/BSS138.pdf" H 5650 6075 50  0001 L CNN
	1    5650 6075
	0    1    1    0   
$EndComp
Text GLabel 8525 5000 0    50   Input ~ 0
SCL-Master-5V
Text GLabel 8525 5100 0    50   Input ~ 0
SDA-Master-5V
Text GLabel 8525 5300 0    50   Input ~ 0
V5
Text GLabel 8525 5200 0    50   Input ~ 0
GND
Wire Wire Line
	8675 5000 8525 5000
Wire Wire Line
	8675 5100 8525 5100
Wire Wire Line
	8675 5200 8525 5200
Wire Wire Line
	8675 5300 8525 5300
Text Notes 8275 4700 0    50   ~ 0
I2C Terminal
Text Notes 10200 4700 0    50   ~ 0
LED Terminal
Text GLabel 10300 5175 0    50   Input ~ 0
V5
Text GLabel 10300 4975 0    50   Input ~ 0
GND
Text GLabel 10300 5075 0    50   Input ~ 0
LED-Data
Wire Wire Line
	10300 5075 10575 5075
Wire Wire Line
	10575 4975 10300 4975
Wire Wire Line
	10575 5175 10300 5175
Wire Wire Line
	10150 2850 10325 2850
Wire Wire Line
	10325 2850 10325 2950
Connection ~ 10325 2950
Wire Wire Line
	10325 2950 10150 2950
Text GLabel 10450 2750 2    50   Input ~ 0
PROG
Wire Wire Line
	10450 2750 10150 2750
Text GLabel 7950 1800 0    50   Input ~ 0
EN
Wire Wire Line
	7950 1800 8300 1800
Text GLabel 6675 4950 2    50   Input ~ 0
5V
Text GLabel 4175 4950 0    50   Input ~ 0
3V3
$Comp
L BarduinoStepperBoard-rescue:RES-US1206FAB-fab R6
U 1 1 5F285447
P 4450 5150
F 0 "R6" V 4492 5082 45  0000 R CNN
F 1 "10K" V 4408 5082 45  0000 R CNN
F 2 "fab2020:fab-R1206" H 4480 5300 20  0001 C CNN
F 3 "" H 4450 5150 50  0001 C CNN
	1    4450 5150
	0    -1   -1   0   
$EndComp
$Comp
L BarduinoStepperBoard-rescue:RES-US1206FAB-fab R7
U 1 1 5F288B59
P 4800 5150
F 0 "R7" V 4842 5082 45  0000 R CNN
F 1 "10K" V 4758 5082 45  0000 R CNN
F 2 "fab2020:fab-R1206" H 4830 5300 20  0001 C CNN
F 3 "" H 4800 5150 50  0001 C CNN
	1    4800 5150
	0    -1   -1   0   
$EndComp
$Comp
L BarduinoStepperBoard-rescue:RES-US1206FAB-fab R8
U 1 1 5F28A2A1
P 6000 5150
F 0 "R8" V 6042 5082 45  0000 R CNN
F 1 "10K" V 5958 5082 45  0000 R CNN
F 2 "fab2020:fab-R1206" H 6030 5300 20  0001 C CNN
F 3 "" H 6000 5150 50  0001 C CNN
	1    6000 5150
	0    -1   -1   0   
$EndComp
$Comp
L BarduinoStepperBoard-rescue:RES-US1206FAB-fab R9
U 1 1 5F28A2A7
P 6350 5150
F 0 "R9" V 6392 5082 45  0000 R CNN
F 1 "10K" V 6308 5082 45  0000 R CNN
F 2 "fab2020:fab-R1206" H 6380 5300 20  0001 C CNN
F 3 "" H 6350 5150 50  0001 C CNN
	1    6350 5150
	0    -1   -1   0   
$EndComp
Text GLabel 10450 1650 2    50   Input ~ 0
SCL-Master-3V3
Text GLabel 10450 1950 2    50   Input ~ 0
SDA-Master-3V3
Wire Wire Line
	10450 1650 10150 1650
Wire Wire Line
	10450 1950 10150 1950
Text GLabel 6750 6175 2    50   Input ~ 0
SCL-Master-5V
Text GLabel 6750 5675 2    50   Input ~ 0
SDA-Master-5V
Text GLabel 4175 6175 0    50   Input ~ 0
SCL-Master-3V3
Text GLabel 4175 5675 0    50   Input ~ 0
SDA-Master-3V3
Wire Wire Line
	5000 5675 4450 5675
Wire Wire Line
	4175 6175 4800 6175
Wire Wire Line
	6750 5675 6000 5675
Wire Wire Line
	5200 5375 5200 4950
Wire Wire Line
	5200 4950 4800 4950
Connection ~ 4450 4950
Wire Wire Line
	4450 4950 4175 4950
Connection ~ 4800 4950
Wire Wire Line
	4800 4950 4450 4950
Wire Wire Line
	4800 5350 4800 6175
Wire Wire Line
	4450 5350 4450 5675
Connection ~ 4450 5675
Wire Wire Line
	4450 5675 4175 5675
Connection ~ 6000 4950
Wire Wire Line
	6000 4950 6350 4950
Connection ~ 6350 4950
Wire Wire Line
	6350 4950 6675 4950
Wire Wire Line
	6000 5350 6000 5675
Connection ~ 6000 5675
Wire Wire Line
	6000 5675 5400 5675
Wire Wire Line
	6350 5350 6350 6175
Wire Wire Line
	6350 6175 6750 6175
Wire Wire Line
	4800 6175 5450 6175
Connection ~ 4800 6175
Wire Wire Line
	5850 6175 6350 6175
Connection ~ 6350 6175
Wire Wire Line
	5650 5875 5650 4950
Wire Wire Line
	5650 4950 6000 4950
Text Notes 5175 4750 0    50   ~ 0
Level Shifter
Text GLabel 4400 2125 0    50   Input ~ 0
TXLED
Wire Wire Line
	4575 2125 4400 2125
Text GLabel 2425 4725 0    50   Input ~ 0
TXLED
Wire Wire Line
	2425 4725 2575 4725
Text GLabel 3175 4200 2    50   Input ~ 0
VIO
Wire Wire Line
	3175 4200 2975 4200
$Comp
L fab2020:CAP-US1206 C5
U 1 1 5F2F95B9
P 10625 5775
F 0 "C5" V 10633 5903 45  0000 L CNN
F 1 "1uf" V 10717 5903 45  0000 L CNN
F 2 "fab2020:fab-C1206" H 10655 5925 20  0001 C CNN
F 3 "" H 10625 5775 50  0001 C CNN
	1    10625 5775
	0    1    1    0   
$EndComp
Connection ~ 10625 5975
Wire Wire Line
	10625 5975 10525 5975
Text GLabel 10725 5675 2    50   Input ~ 0
GND
Wire Wire Line
	10725 5675 10625 5675
$Comp
L fab2020:LED M5
U 1 1 5F300E80
P 9600 6475
F 0 "M5" H 9677 6567 45  0000 L CNN
F 1 "LED" H 9677 6483 45  0000 L CNN
F 2 "fab2020:fab-LED1206" H 9630 6625 20  0001 C CNN
F 3 "" H 9600 6475 50  0001 C CNN
	1    9600 6475
	0    1    1    0   
$EndComp
$Comp
L BarduinoStepperBoard-rescue:RES-US1206FAB-fab R10
U 1 1 5F300E86
P 10150 6475
F 0 "R10" H 10150 6669 45  0000 C CNN
F 1 "1k" H 10150 6585 45  0000 C CNN
F 2 "fab2020:fab-R1206" H 10180 6625 20  0001 C CNN
F 3 "" H 10150 6475 50  0001 C CNN
	1    10150 6475
	1    0    0    -1  
$EndComp
Wire Wire Line
	9950 6475 9800 6475
Wire Wire Line
	9500 6475 8975 6475
Wire Wire Line
	8975 6475 8975 6275
Wire Wire Line
	10625 6175 10625 6475
Wire Wire Line
	10350 6475 10625 6475
Connection ~ 10625 6175
Wire Wire Line
	10625 6175 10525 6175
$Comp
L fab2020:3.5in_TFTShield U3
U 1 1 5F32DD6D
P 5375 2875
F 0 "U3" H 5400 3050 50  0000 C CNN
F 1 "3.5in_TFTShield" H 5400 2959 50  0000 C CNN
F 2 "fab2020:3.5in-TFTShield" H 5675 2925 50  0001 C CNN
F 3 "" H 5675 2925 50  0001 C CNN
	1    5375 2875
	1    0    0    -1  
$EndComp
Text GLabel 4900 3025 0    50   Input ~ 0
GND
Text GLabel 4900 3125 0    50   Input ~ 0
5V
Text GLabel 4900 2925 0    50   Input ~ 0
GND
Wire Wire Line
	4900 3125 4975 3125
Wire Wire Line
	4900 3025 4975 3025
Wire Wire Line
	4900 2925 4975 2925
Text GLabel 5975 2925 2    50   Input ~ 0
SCLK-TFT
Wire Wire Line
	5975 2925 5825 2925
Wire Notes Line
	9550 3400 9550 2925
Wire Notes Line
	9550 2925 8925 2925
Wire Notes Line
	8925 2925 8925 3400
Wire Notes Line
	8925 3400 9550 3400
Text GLabel 5975 3025 2    50   Input ~ 0
MISO-TFT
Text GLabel 5975 3125 2    50   Input ~ 0
MOSI-TFT
Text GLabel 5975 3325 2    50   Input ~ 0
LCD-CS
Text GLabel 5975 3425 2    50   Input ~ 0
LCD-BL
Text GLabel 5975 3525 2    50   Input ~ 0
LCD-RST
Text GLabel 5975 3625 2    50   Input ~ 0
LCD-DC
Text GLabel 5975 3825 2    50   Input ~ 0
TP-BUSY
Text GLabel 5975 3925 2    50   Input ~ 0
SD-CS
Text GLabel 5975 4025 2    50   Input ~ 0
TP-CS
Text GLabel 5975 4125 2    50   Input ~ 0
TP-IRQ
Wire Wire Line
	5975 3025 5825 3025
Wire Wire Line
	5975 3125 5825 3125
Wire Wire Line
	5975 3325 5825 3325
Wire Wire Line
	5975 3425 5825 3425
Wire Wire Line
	5975 3525 5825 3525
Wire Wire Line
	5975 3625 5825 3625
Wire Wire Line
	5975 3825 5825 3825
Wire Wire Line
	5975 3925 5825 3925
Wire Wire Line
	5975 4025 5825 4025
Wire Wire Line
	5975 4125 5825 4125
Text GLabel 4900 3225 0    50   Input ~ 0
EN
Wire Wire Line
	4900 3225 4975 3225
Text GLabel 10450 2250 2    50   Input ~ 0
SCLK-TFT
Text GLabel 10450 2150 2    50   Input ~ 0
MISO-TFT
Text GLabel 10450 1550 2    50   Input ~ 0
MOSI-TFT
Wire Wire Line
	10450 1550 10150 1550
Wire Wire Line
	10450 2150 10150 2150
Wire Wire Line
	10450 2250 10150 2250
Text GLabel 10450 2550 2    50   Input ~ 0
LCD-CS
Text GLabel 10450 2450 2    50   Input ~ 0
LCD-BL
Wire Wire Line
	10450 2450 10150 2450
Wire Wire Line
	10450 2550 10150 2550
Text GLabel 10450 3425 2    50   Input ~ 0
LCD-RST
Text GLabel 10450 3575 2    50   Input ~ 0
LCD-DC
Wire Wire Line
	10450 3425 9700 3425
Wire Wire Line
	9700 3425 9700 3350
Wire Wire Line
	10450 3575 9600 3575
Wire Wire Line
	9600 3575 9600 3350
Text GLabel 7950 2800 0    50   Input ~ 0
TP-BUSY
Text GLabel 7950 2700 0    50   Input ~ 0
SD-CS
Text GLabel 7950 2600 0    50   Input ~ 0
TP-CS
Text GLabel 7950 2500 0    50   Input ~ 0
TP-IRQ
Wire Wire Line
	7950 2800 8300 2800
Wire Wire Line
	7950 2700 8300 2700
Wire Wire Line
	7950 2600 8300 2600
Wire Wire Line
	7950 2500 8300 2500
$EndSCHEMATC
